[
  {
    "activity_id": "7442168222260502529",
    "post_url": "https://www.linkedin.com/posts/sami-kaarnamaa-b4b97b8a_board-boardwork-corporategovernance-activity-7442168222260502529-my8l?utm_source=social_share_send&utm_medium=member_desktop_web&rcm=ACoAAGVscO0BpoACNA8fUXEhNiI2-Jmol2PW74A",
    "text": "Pari sanaa palautumisesta ja pys\u00e4htymisest\u00e4  \ud83d\udc4c\n\nReilu kymmenen vuotta sitten opiskelin El\u00e4m\u00e4ntaidon Valmentajaksi\ud83e\udd35\u200d\u2642\ufe0f\nHavahtuminen, Salaisuus, L\u00e4sn\u00e4olon Voima olivat hyvi\u00e4 ensi askelia pys\u00e4htymiseen.\nTy\u00f6el\u00e4m\u00e4ss\u00e4 on helppo t\u00e4ytt\u00e4\u00e4 kalenteri kiireell\u00e4 ja sit\u00e4 kautta saada esim. merkityksellisyyden tunnetta\ud83e\udd14\n\nMutta mik\u00e4 on oikeasti merkityksellist\u00e4?\nVoisiko se olla aitoa kyvykkyytt\u00e4 olla l\u00e4sn\u00e4 hetkess\u00e4 aidosti? \n\nTuota taitoa olen pyrkinyt kehitt\u00e4m\u00e4\u00e4n viimeiset 15vuotta ja n\u00e4in\u00e4 digitransformaation aikoina ei se aina ole helppoa ollut\u2026\nOlen kokenut, ett\u00e4 uskallus pys\u00e4hty\u00e4 auttaa minua palautumaan, keskittym\u00e4\u00e4n ja olemaan l\u00e4sn\u00e4 paremmin.\n\nUskallatko sin\u00e4 pys\u00e4hty\u00e4?\n\n#board #boardwork\n#CorporateGovernance #BoardManagement #BoardPortal #Leadership #CLevel #DecisionMaking #DigitalTransformation #Governance #Boardroom #BusinessLeadership #SaaS #B2B #BoardOfDirectors #BoardEfficiency #RiskManagement  #sales #people #growth #strategy",
    "full_urn": "urn:li:ugcPost:7442168221312634880",
    "author": {
      "name": "Sami Kaarnamaa",
      "headline": "Business Development I Growth I Sales I Strategy I People Leader I CEO I P&L I B2B I Change Management I SaaS",
      "profile_id": "318919595",
      "profile_url": "https://www.linkedin.com/in/sami-kaarnamaa-b4b97b8a?miniProfileUrn=urn%3Ali%3Afsd_profile%3AACoAABMCU6sBnZyT-7P2BLJ2aVZ5KZ-ljJgruqg",
      "image_url": "https://media.licdn.com/dms/image/v2/D4D03AQExzFhM3WutHA/profile-displayphoto-shrink_100_100/profile-displayphoto-shrink_100_100/0/1732442685074?e=1775692800&v=beta&t=VucR4HMleQYyJTGEz-hUXgxjpVmYXggZTSpA1Si0DXA"
    },
    "stats": {
      "total_reactions": 3,
      "comments": 0,
      "shares": 0,
      "reactions": [
        {
          "type": "APPRECIATION",
          "count": 2
        },
        {
          "type": "LIKE",
          "count": 1
        }
      ]
    },
    "posted_at": {
      "display_text": "20m",
      "date": "2026-03-24 12:19:32",
      "timestamp": 1774351172986
    },
    "hashtags": [
      "board",
      "boardwork",
      "CorporateGovernance",
      "BoardManagement",
      "BoardPortal",
      "Leadership",
      "CLevel",
      "DecisionMaking",
      "DigitalTransformation",
      "Governance",
      "Boardroom",
      "BusinessLeadership",
      "SaaS",
      "B2B",
      "BoardOfDirectors",
      "BoardEfficiency",
      "RiskManagement",
      "sales",
      "people",
      "growth",
      "strategy"
    ],
    "content": {
      "type": "image",
      "url": "https://media.licdn.com/dms/image/v2/D4D22AQEjBOIK4EafvQ/feedshare-shrink_1280/B4DZ0fkjhjKEAQ-/0/1774351170018?e=1775692800&v=beta&t=AEPBAPaxeFSSypJmdMSxvr6j9lKnCdaUYe-FEMXhiTk",
      "images": [
        {
          "url": "https://media.licdn.com/dms/image/v2/D4D22AQEjBOIK4EafvQ/feedshare-shrink_1280/B4DZ0fkjhjKEAQ-/0/1774351170018?e=1775692800&v=beta&t=AEPBAPaxeFSSypJmdMSxvr6j9lKnCdaUYe-FEMXhiTk",
          "width": 1280,
          "height": 1564
        },
        {
          "url": "https://media.licdn.com/dms/image/v2/D4D22AQEjBOIK4EafvQ/feedshare-shrink_800/B4DZ0fkjhjKEAg-/0/1774351170019?e=1775692800&v=beta&t=tWL0q_1fF_MWKPIgmjWzRs0mgSVkazTtMT1uDLVtTso",
          "width": 800,
          "height": 977
        },
        {
          "url": "https://media.licdn.com/dms/image/v2/D4D22AQEjBOIK4EafvQ/feedshare-shrink_2048_1536/B4DZ0fkjhjKEAk-/0/1774351170019?e=1775692800&v=beta&t=5IVGXSlGm7qXflrRX1YdncwVmj6wLJlQV_NgPs1cPCE",
          "width": 1257,
          "height": 1536
        },
        {
          "url": "https://media.licdn.com/dms/image/v2/D4D22AQHQcAIcAJ65RA/feedshare-shrink_800/B4DZ0fkjzKIoAc-/0/1774351171095?e=1775692800&v=beta&t=w_PLl5UeiGa_7tdlepwtjaF69QPKw8a5HDsmajdsjRs",
          "width": 800,
          "height": 1063
        },
        {
          "url": "https://media.licdn.com/dms/image/v2/D4D22AQHQcAIcAJ65RA/feedshare-shrink_2048_1536/B4DZ0fkjzKIoAg-/0/1774351171096?e=1775692800&v=beta&t=m1quXBWU8yKtRNwRF9_NLuUW52yLXNvWPRwYXI_azus",
          "width": 1155,
          "height": 1536
        },
        {
          "url": "https://media.licdn.com/dms/image/v2/D4D22AQHQcAIcAJ65RA/feedshare-shrink_1280/B4DZ0fkjzKIoAM-/0/1774351171096?e=1775692800&v=beta&t=S9s6QWZDtJjov7abcXrM2c72aBVuyTBYwL-OiTjW8C8",
          "width": 1179,
          "height": 1567
        }
      ]
    },
    "is_reshare": false,
    "metadata": {
      "total_count": 234,
      "count": 50,
      "page": 1,
      "page_size": 50,
      "total_pages": 5,
      "has_next_page": true,
      "has_prev_page": false
    },
    "search_input": "B2B SaaS growth"
  },
  {
    "activity_id": "7442167998926209024",
    "post_url": "https://www.linkedin.com/posts/samdunning_this-friday-ill-fly-1019-miles-and-spend-activity-7442167998926209024-7kpQ?utm_source=social_share_send&utm_medium=member_desktop_web&rcm=ACoAAGVscO0BpoACNA8fUXEhNiI2-Jmol2PW74A",
    "text": "This Friday I\u2019ll fly 1,019 miles and spend $3k+ for a 72hr Spanish mission to fuel the Breaking B2B media machine:\n\nThe goal?\n\n10 videos across\n\n- SaaS SEO & AEO\n- B2B & SaaS marketing \n- Interviews w/ SaaS founders \n- And documenting the whole trip\n\nAll with a yourube fist approach.\n\nPlus we can chop up fo here and share on the Breaking B2B podcast and newsletter.\n\nA solid 2-3 months of video and stories to share.\n\nPlus we can see some epic sights, do a cycling tour, enjoy the warm weather and a beer or two in the sun.\n\n\nWe last did a trip like this in December to Budapest.\n\nGot 8+ long form videos recorded.\n\nAnd had a great time in the process.\n\nWe\u2019ve been blessed with growth at Breaking B2B since then\u2026\n\nSo thought why not do a round 2.\n\n\nBen and Samu see you bright and early Friday morning!\n\nAny SaaS founders or b2b marketers near Malaga wanna meet up this weekend? \ud83d\udc47",
    "full_urn": "urn:li:activity:7442167998926209024",
    "author": {
      "name": "Sam Dunning",
      "headline": "Founder @ Breaking B2B | SaaS SEO For Revenue NOT Vanity | SaaS & B2B Teams Hire Us To Scale Organic Pipeline From Google & AI Search | DM To Discuss | Host @ Breaking B2B (Top 2.5% B2B Marketing Podcast)",
      "profile_id": "213164734",
      "profile_url": "https://www.linkedin.com/in/samdunning?miniProfileUrn=urn%3Ali%3Afsd_profile%3AACoAAAy0or4BVNkrUSJSMBNMdIloOfBoOvZ93Uo",
      "image_url": "https://media.licdn.com/dms/image/v2/D5603AQHLD1_eKemcyA/profile-displayphoto-shrink_100_100/profile-displayphoto-shrink_100_100/0/1706726839116?e=1775692800&v=beta&t=CORyuDVy0hp_b_UIgsh5WqRON6wGOItxjO-PcjiN1eQ"
    },
    "stats": {
      "total_reactions": 6,
      "comments": 3,
      "shares": 1,
      "reactions": [
        {
          "type": "LIKE",
          "count": 4
        },
        {
          "type": "APPRECIATION",
          "count": 1
        },
        {
          "type": "EMPATHY",
          "count": 1
        }
      ]
    },
    "posted_at": {
      "display_text": "21m",
      "date": "2026-03-24 12:18:39",
      "timestamp": 1774351119739
    },
    "hashtags": [],
    "content": {
      "type": "text",
      "text": "This Friday I\u2019ll fly 1,019 miles and spend $3k+ for a 72hr Spanish mission to fuel the Breaking B2B media machine:\n\nThe goal?\n\n10 videos across\n\n- SaaS SEO & AEO\n- B2B & SaaS marketing \n- Interviews w/ SaaS founders \n- And documenting the whole trip\n\nAll with a yourube fist approach.\n\nPlus we can chop up fo here and share on the Breaking B2B podcast and newsletter.\n\nA solid 2-3 months of video and stories to share.\n\nPlus we can see some epic sights, do a cycling tour, enjoy the warm weather and a beer or two in the sun.\n\n\nWe last did a trip like this in December to Budapest.\n\nGot 8+ long form videos recorded.\n\nAnd had a great time in the process.\n\nWe\u2019ve been blessed with growth at Breaking B2B since then\u2026\n\nSo thought why not do a round 2.\n\n\nBen and Samu see you bright and early Friday morning!\n\nAny SaaS founders or b2b marketers near Malaga wanna meet up this weekend? \ud83d\udc47"
    },
    "is_reshare": false,
    "metadata": {
      "total_count": 234,
      "count": 50,
      "page": 1,
      "page_size": 50,
      "total_pages": 5,
      "has_next_page": true,
      "has_prev_page": false
    },
    "search_input": "B2B SaaS growth"
  }
]
